[gd_scene load_steps=6 format=2]

[ext_resource path="res://assets/10x10ball.png" type="Texture" id=1]
[ext_resource path="res://scenes/Ball.gd" type="Script" id=2]
[ext_resource path="res://scenes/BallDestroyParticles.tscn" type="PackedScene" id=3]

[sub_resource type="CircleShape2D" id=1]
radius = 5.0

[sub_resource type="CircleShape2D" id=2]
radius = 6.0

[node name="Ball" type="RigidBody2D" groups=[
"ball",
]]
script = ExtResource( 2 )
__meta__ = {
"_edit_group_": true
}
lifetime = 10
destroy_particles_scene = ExtResource( 3 )

[node name="sprite" type="Sprite" parent="."]
texture = ExtResource( 1 )
region_rect = Rect2( 70, 60, 20, 20 )

[node name="CollisionShape2D" type="CollisionShape2D" parent="."]
shape = SubResource( 1 )

[node name="Area2D" type="Area2D" parent="."]
collision_mask = 0

[node name="CollisionShape2D" type="CollisionShape2D" parent="Area2D"]
shape = SubResource( 2 )

[connection signal="area_entered" from="Area2D" to="." method="_on_Area2D_area_entered"]
