[gd_scene load_steps=3 format=2]

[ext_resource path="res://scenes/EndOfGame.gd" type="Script" id=1]
[ext_resource path="res://assets/sky.jpg" type="Texture" id=2]

[node name="Node2D" type="Node2D"]
script = ExtResource( 1 )

[node name="sky" type="Sprite" parent="."]
position = Vector2( 524, 329 )
scale = Vector2( 1.02734, 0.646484 )
texture = ExtResource( 2 )

[node name="Label" type="Label" parent="."]
margin_left = 340.0
margin_top = 180.0
margin_right = 518.0
margin_bottom = 211.0
text = "This is the end of the game.
Thanks for playing :)"
__meta__ = {
"_edit_use_anchors_": false
}

[node name="Button" type="Button" parent="."]
margin_left = 400.0
margin_top = 230.0
margin_right = 433.0
margin_bottom = 250.0
text = "yay"
__meta__ = {
"_edit_use_anchors_": false
}

[connection signal="pressed" from="Button" to="." method="_on_Button_pressed"]
