[gd_scene load_steps=3 format=2]

[ext_resource path="res://scenes/LevelEditor.tscn" type="PackedScene" id=1]
[ext_resource path="res://scenes/Level1.gd" type="Script" id=2]

[node name="Level1" type="Node2D"]
script = ExtResource( 2 )
num_balls = 100
level_name = "No kill like overkill"
password = "overkill"

[node name="LevelEditor" parent="." instance=ExtResource( 1 )]
tile_data = PoolIntArray( 2162756, -1610612728, 0, 2162757, -1610612728, 0, 2162758, -1610612733, 0, 2162768, 3, 0, 2162770, -1610612728, 0, 2162771, -1610612728, 0, 2293830, -1610612730, 0, 2293832, -1610612733, 0, 2293838, 3, 0, 2293840, -1610612730, 0, 2424902, -1610612730, 0, 2424904, -1610612730, 0, 2424906, -1610612727, 0, 2424910, -1610612730, 0, 2424912, -1610612730, 0, 2555974, -1610612730, 0, 2555976, -1610612730, 0, 2555982, -1610612730, 0, 2555984, -1610612730, 0, 2687044, 8, 0, 2687052, 8, 0, 2752580, -1610612728, 0, 2752581, 6, 0, 2752583, 6, 0, 2752585, 6, 0, 2752587, -1610612728, 0, 2752588, -1610612728, 0, 2752589, 6, 0, 2752591, 6, 0, 2752593, 6, 0, 2752595, -1610612728, 0, 2883653, 6, 0, 2883655, 6, 0, 2883657, 6, 0, 2883661, 6, 0, 2883663, 6, 0, 2883665, 6, 0, 3014725, 6, 0, 3014727, 6, 0, 3014729, 6, 0, 3014733, 6, 0, 3014735, 6, 0, 3014737, 6, 0, 3145797, 6, 0, 3145799, 6, 0, 3145801, 6, 0, 3145805, 6, 0, 3145807, 6, 0, 3145809, 6, 0 )
_construction = NodePath("../Construction")

[node name="Construction" type="Node2D" parent="."]
