[gd_scene load_steps=5 format=2]

[ext_resource path="res://assets/wood.jpg" type="Texture" id=1]
[ext_resource path="res://scenes/WoodPlank1.gd" type="Script" id=2]

[sub_resource type="RectangleShape2D" id=1]
extents = Vector2( 20, 20 )

[sub_resource type="RectangleShape2D" id=2]
extents = Vector2( 21, 21 )

[node name="WoodPlank1" type="RigidBody2D"]
continuous_cd = 1
script = ExtResource( 2 )

[node name="sprite" type="Sprite" parent="."]
texture = ExtResource( 1 )
region_enabled = true
region_rect = Rect2( 450, 200, 40, 40 )

[node name="CollisionShape2D" type="CollisionShape2D" parent="."]
visible = false
shape = SubResource( 1 )

[node name="Area2D" type="Area2D" parent="."]

[node name="CollisionShape2D" type="CollisionShape2D" parent="Area2D"]
visible = false
shape = SubResource( 2 )
